<?xml version='1.0'?>
<sdf version="1.4" xmlns:xacro="http://ros.org/wiki/xacro">
  <xacro:macro name="pole" params="name x y color">
    <xacro:property name="l" value="0.5" />
    <xacro:property name="d" value="0.05" />
    <model name="${name}">
    <pose>${x} ${y} 0 0 0 0</pose>
      <static>false</static>
      <link name="${name}_link">
        <inertial>
          <mass>0.05</mass>
          <inertia>
            <ixx>0.083</ixx>       <!-- for a box: ixx = 0.083 * mass * (y*y + z*z) -->
            <ixy>0.0</ixy>         <!-- for a box: ixy = 0 -->
            <ixz>0.0</ixz>         <!-- for a box: ixz = 0 -->
            <iyy>0.083</iyy>       <!-- for a box: iyy = 0.083 * mass * (x*x + z*z) -->
            <iyz>0.0</iyz>         <!-- for a box: iyz = 0 -->
            <izz>0.083</izz>       <!-- for a box: izz = 0.083 * mass * (x*x + y*y) -->
          </inertia>
        </inertial>
        <collision name="${name}_collision">
          <geometry>
	    <cylinder>
		<radius>${d/2}</radius>
		<length>${l}</length>
 	    </cylinder>
          </geometry>
        </collision>
        <visual name="${name}_visual">
          <geometry>
	    <cylinder>
		<radius>${d/2}</radius>
		<length>${l}</length>
 	    </cylinder>
          </geometry>
	  <material>
	    <xacro:if value="${color == 'red'}">
		<ambient>1 0 0 1</ambient>
            </xacro:if>
	    <xacro:if value="${color == 'green'}">
		<ambient>0 1 0 1</ambient>
            </xacro:if>
	    <xacro:if value="${color == 'blue'}">
		<ambient>0 0 1 1</ambient>
            </xacro:if>
	  </material>
        </visual>
      </link>
    </model>
  </xacro:macro>

  <xacro:macro name="wall" params="name dir x y d">
    <xacro:property name="tl" value="0.01" />
    <model name="${name}">
    <pose>${x} ${y} 0 0 0 0</pose>
      <static>true</static>
      <link name="${name}_link">
        <collision name="${name}_ccollision">
        <geometry>
          <box>
          <xacro:if value="${dir == 'x'}">
	  <size>${d+tl} ${tl} 3</size>
          </xacro:if> 
          <xacro:if value="${dir == 'y'}">
          </xacro:if> 
	  <size>${tl} ${d+tl} 3</size>
          </box>
        </geometry>
        <surface>
          <friction>
          <ode>
            <mu>100</mu>
            <mu2>50</mu2>
          </ode>
          </friction>
        </surface>
        </collision>
        <visual name="${name}_visual">
        <cast_shadows>false</cast_shadows>
        <geometry>
          <box>
          <xacro:if value="${dir == 'x'}">
	  <size>${d+tl} ${tl} 3</size>
          </xacro:if> 
          <xacro:if value="${dir == 'y'}">
          </xacro:if> 
	  <size>${tl} ${d+tl} 3</size>
          </box>
        </geometry>
        <material>
       		<ambient>1 1 1 1</ambient>
       		<diffuse>1 1 1 1</diffuse>
        </material>
        </visual>
      </link>
    </model>
  </xacro:macro>

  <xacro:macro name="common">
    <!-- Scene -->
    <scene>
      <ambient>0.4 0.4 0.4 1</ambient>
      <background>0.7 0.7 0.7 1</background>
      <shadows>true</shadows>
    </scene>

    <!-- A global light source -->
    <light type="directional" name="sun">
      <cast_shadows>true</cast_shadows>
      <pose>-3 -3 5 0 0 0</pose>
      <diffuse>0.9 0.9 0.9 1</diffuse>
      <specular>0.2 0.2 0.2 1</specular>
      <attenuation>
        <range>1000</range>
        <constant>0.9</constant>
        <linear>0.01</linear>
        <quadratic>0.001</quadratic>
      </attenuation>
      <direction>0.3 0.3 -0.7</direction>
    </light>

    <!-- A ground plane -->
    <model name="ground_plane">
      <static>true</static>
      <link name="link">
        <collision name="collision">
        <geometry>
          <plane>
          <normal>0 0 1</normal>
          <size>100 100</size>
          </plane>
        </geometry>
        <surface>
          <friction>
          <ode>
            <mu>100</mu>
            <mu2>50</mu2>
          </ode>
          </friction>
        </surface>
        </collision>
        <visual name="visual">
        <cast_shadows>false</cast_shadows>
        <geometry>
          <plane>
          <normal>0 0 1</normal>
          <size>100 100</size>
          </plane>
        </geometry>
        <material>
       		<ambient>0.5 0.5 0.2 1</ambient>
       		<diffuse>1 1 0.4 1</diffuse>
        </material>
        </visual>
      </link>
    </model>
  
    <!-- Physic -->
    <physics type="ode">
      <real_time_update_rate>1000.0</real_time_update_rate>
      <max_step_size>0.001</max_step_size>
      <real_time_factor>1</real_time_factor>
      <ode>
        <solver>
          <type>quick</type>
          <iters>150</iters>
          <precon_iters>0</precon_iters>
          <sor>1.400000</sor>
          <use_dynamic_moi_rescaling>1</use_dynamic_moi_rescaling>
        </solver>
        <constraints>
          <cfm>0.00001</cfm>
          <erp>0.2</erp>
          <contact_max_correcting_vel>2000.000000</contact_max_correcting_vel>
          <contact_surface_layer>0.01000</contact_surface_layer>
        </constraints>
      </ode>
    </physics>
    </xacro:macro>
</sdf>
