<?xml version='1.0'?>
<sdf version="1.4" xmlns:xacro="http://ros.org/wiki/xacro">
  <xacro:include filename="common.xacro" />
  <world name="lar_race_track_02">

    <xacro:common/>
 
    <!-- Race track -->
    <!-- Walls -->
    <xacro:wall name="wall_x" dir="x" x="1.5" y="4" d="3" />
    <xacro:wall name="wall_y" dir="y" x="3" y="2" d="4" />

    <model name="box_1">
    <pose>1.0 3.9 0.15 0 0 0</pose>
      <static>true</static>
      <link name="box_1_link">
        <collision name="box_1_ccollision">
        <geometry>
          <box>
	  <size>2.0 0.2 0.3</size>
          </box>
        </geometry>
        <surface>
          <friction>
          <ode>
            <mu>100</mu>
            <mu2>50</mu2>
          </ode>
          </friction>
        </surface>
        </collision>
        <visual name="box_1__visual">
        <cast_shadows>false</cast_shadows>
        <geometry>
          <box>
	  <size>2.0 0.2 0.3</size>
          </box>
        </geometry>
        <material>
       		<ambient>0.3 0.7 0 1</ambient>
       		<diffuse>0.3 0.7 0 1</diffuse>
        </material>
        </visual>
      </link>
    </model>

    <model name="box_2">
    <pose>2.9 3.5 0.7 0 0 0</pose>
      <static>true</static>
      <link name="box_2_link">
        <collision name="box_1_ccollision">
        <geometry>
          <box>
	  <size>0.2 1.0 1.4</size>
          </box>
        </geometry>
        <surface>
          <friction>
          <ode>
            <mu>100</mu>
            <mu2>50</mu2>
          </ode>
          </friction>
        </surface>
        </collision>
        <visual name="box_2__visual">
        <cast_shadows>false</cast_shadows>
        <geometry>
          <box>
	  <size>0.2 1.0 1.4</size>
          </box>
        </geometry>
        <material>
       		<ambient>0.7 0 0.7 1</ambient>
       		<diffuse>0.7 0 0.7 1</diffuse>
        </material>
        </visual>
      </link>
    </model>

    <model name="box_3">
    <pose>2.5 3.9 1.1 0 0 0</pose>
      <static>true</static>
      <link name="box_3_link">
        <collision name="box_1_ccollision">
        <geometry>
          <box>
	  <size>0.6 0.2 0.6</size>
          </box>
        </geometry>
        <surface>
          <friction>
          <ode>
            <mu>100</mu>
            <mu2>50</mu2>
          </ode>
          </friction>
        </surface>
        </collision>
        <visual name="box_2__visual">
        <cast_shadows>false</cast_shadows>
        <geometry>
          <box>
	  <size>0.6 0.2 0.6</size>
          </box>
        </geometry>
        <material>
       		<ambient>0 1 0 1</ambient>
       		<diffuse>0 1 0 1</diffuse>
        </material>
        </visual>
      </link>
    </model>
    
    <!-- Poles -->
    <xacro:pole name="red_1" x="1" y="3.0" color="green" />
    <xacro:pole name="red_2" x="2.5" y="3.0" color="green" />
    <xacro:pole name="red_3" x="0.5" y="2.0" color="green" />
    <xacro:pole name="green_1" x="0.0" y="1.5" color="red" />
    <xacro:pole name="green_2" x="1.0" y="2.0" color="red" />
    <xacro:pole name="green_3" x="1.3" y="2.0" color="red" />
    <xacro:pole name="green_4" x="1.6" y="2.0" color="red" />
    <xacro:pole name="green_5" x="1" y="3.5" color="red" />
    <xacro:pole name="blue_1" x="1.5" y="2.5" color="blue" />
    <xacro:pole name="blue_2" x="1.5" y="1.0" color="blue" />
    <xacro:pole name="blue_3" x="2.5" y="2.0" color="blue" />
    <xacro:pole name="blue_4" x="2.0" y="3.0" color="blue" />
    <xacro:pole name="blue_5" x="1.5" y="3.5" color="blue" />

  </world>
</sdf>
